{
  "settingsVersion": "1.66",
  "exclusionRules": [],
  "filterLinkHints": false,
  "waitForEnterForFilteredHints": true,
  "hideHud": false,
  "keyMappings": "# Insert your preferred key mappings here.\nunmap f\nunmap F\nunmap o\nunmap O\nmap o LinkHints.activateMode\nmap O LinkHints.activateModeToOpenInNewForegroundTab\nmap s Vomnibar.activate\nmap S Vomnibar.activateInNewTab\nunmap t\nmap t nextTab\nmap T previousTab\nmap q removeTab\nmap Q restoreTab\nmap m toggleMuteTab\nunmap J\nunmap K",
  "linkHintCharacters": "aoeuidhtns",
  "linkHintNumbers": "0123456789",
  "newTabUrl": "about:newtab",
  "nextPatterns": "next,more,newer,>,›,→,»,≫,>>",
  "previousPatterns": "prev,previous,back,older,<,‹,←,«,≪,<<",
  "regexFindMode": false,
  "ignoreKeyboardLayout": false,
  "scrollStepSize": 60,
  "smoothScroll": true,
  "grabBackFocus": false,
  "searchEngines": "w: https://www.wikipedia.org/w/index.php?title=Special:Search&search=%s Wikipedia\n\n# More examples.\n#\n# (Vimium supports search completion Wikipedia, as\n# above, and for these.)\n#\ng: https://www.google.com/search?q=%s Google\n# l: https://www.google.com/search?q=%s&btnI I'm feeling lucky...\ny: https://www.youtube.com/results?search_query=%s Youtube\n# gm: https://www.google.com/maps?q=%s Google maps\n# b: https://www.bing.com/search?q=%s Bing\nd: https://duckduckgo.com/?q=%s DuckDuckGo\naz: https://www.amazon.com/s/?field-keywords=%s Amazon\n# qw: https://www.qwant.com/?q=%s Qwant",
  "searchUrl": "https://search.brave.com/search?q=%s",
  "userDefinedLinkHintCss": "/* Nord Vomnibar CSS */\n/* Installation: Open Vimium Options -> Click \"Show Advanced Options\" and paste this into the CSS for Vimium UI text area. */\n\n#vomnibar ol, #vomnibar ul {\n  list-style: none;\n  display: none;\n}\n\n#vomnibar {\n  background: rgba(46, 52, 68, 0.9);\n  color: #E5E9F0;\n  border-radius: 4px;\n  box-shadow: 0px 2px 10px rgba(0, 0, 0, 0.2);\n  border: none;\n}\n\n#vomnibar input {\n  color: #E5E9F0;\n  font-size: 20px;\n  height: auto;\n  margin-bottom: 0;\n  padding: 15px;\n  background-color: unset;\n  border-radius: 3px;\n  border: none;\n  box-shadow: none;\n}\n\n#vomnibar .vomnibarSearchArea {\n  padding: 0;\n  background-color: unset;\n  border-radius: 4px 4px 0 0;\n  border-bottom: none;\n}\n\n#vomnibar ul {\n  background-color: rgba(76, 86, 106, 0.8);\n}\n\n#vomnibar li {\n  border-bottom: 1px solid rgba(255,255,255,0.1);\n  color: #E5E9F0;\n}\n\n#vomnibar li.vomnibarSelected {\n  background-color: rgba(136, 192, 208, 1);\n}\n\n#vomnibar li .vomnibarSource {\n  color: #D8DEE9;\n}\n\n#vomnibar li em, #vomnibar li .vomnibarTitle {\n  color: #ECEFF4;\n}\n\n#vomnibar li .vomnibarUrl {\n  color: #88C0D0;\n}\n\n#vomnibar li .vomnibarMatch {\n  color: #EBCB8B;\n}\n\n#vomnibar li em .vomnibarMatch, #vomnibar li .vomnibarTitle .vomnibarMatch {\n  color: #EBCB8B;\n}\n\n#vomnibar li.vomnibarSelected .vomnibarSource {\n  color: #4C566A;\n}\n\n#vomnibar li.vomnibarSelected em, #vomnibar li.vomnibarSelected .vomnibarTitle {\n  color: #3B424F;\n}\n\n#vomnibar li.vomnibarSelected .vomnibarUrl {\n  color: #4C566A;\n}\n\n#vomnibar li.vomnibarSelected .vomnibarMatch {\n  color: #2E3440;\n}\n\n/* Light Markers */\ndiv > .internalVimiumHintMarker.vimiumHintMarker {\n  background: #EBCB8B;\n  font-size: 12px;\n  border: 1px solid rgba(0,0,0,0.15)\n  border-radius: 5px;\n  box-shadow: 0em 0.1em 0.6em 0.1em rgba(0, 0, 0, 0.2);\n  padding: 2px 4px;\n}\n\n/* Link hint text */\ndiv > .internalVimiumHintMarker.vimiumHintMarker span {\n  color: #3B4252;\n  font-size: inherit;\n  text-shadow: none;\n}\n\n/* Link hint matching characters */\ndiv > .internalVimiumHintMarker.vimiumHintMarker > .matchingCharacter {\n  color: #2E3440;\n}\n\n/* Dark Markers */\n/* Remove everything from here below if you prefer light markers */\ndiv > .internalVimiumHintMarker.vimiumHintMarker {\n  background: #2E3440;\n  font-size: 12px;\n  border: none;\n  border-radius: 5px;\n  box-shadow: 0em 0.1em 0.6em 0.1em rgba(0, 0, 0, 0.2);\n  padding: 2px 4px;\n}\n\n/* Link hint text */\ndiv > .internalVimiumHintMarker.vimiumHintMarker span {\n  color: #5E81AC;\n  font-size: inherit;\n  text-shadow: none;\n}\n\n/* Link hint matching characters */\ndiv > .internalVimiumHintMarker.vimiumHintMarker > .matchingCharacter {\n  color: #FFF;\n}"
}