{
    "coc.preferences.formatOnSaveFiletypes": [
        "css",
        "markdown",
        "javascript",
        "graphql",
        "html",
        "yaml",
        "json",
        "python",
        "java",
        "vim"
    ],
    "suggest.triggerAfterInsertEnter": true,
    "suggest.noselect": false,
    "suggest.minTriggerInputLength": 2,
    "suggest.acceptSuggestionOnCommitCharacter": true,
    "suggest.snippetIndicator": "►",
    "tsserver.enable": true,
    "tsserver.formatOnType": false,
    "tsserver.enableJavascript": true,
    "typescript.validate.enable": true,
    "typescript.format.placeOpenBraceOnNewLineForFunctions": true,
    "typescript.suggest.completeFunctionCalls": true,
    "typescript.suggest.paths": true,
    "typescript.suggest.enabled": true,
    "typescript.suggest.autoImports": true,
    "typescript.updateImportsOnFileMove.enable": true,
    "typescript.format.enabled": true,
    "typescript.showUnused": true,
    "typescript.format.semicolons": "insert",
    "typescript.preferences.quoteStyle": "single",
    "tslint.autoFixOnSave": true,
    "tslint.jsEnable": true,
    "tslint.alwaysShowRuleFailuresAsWarnings": false,
    "prettier.requireConfig": false,
    "prettier.useTabs": true,
    "prettier.tabWidth": 4,
    "prettier.singleQuote": true,
    "prettier.semi": true,
    "prettier.tslintIntegration": true,
    "prettier.eslintIntegration": true,
    "prettier.stylelintIntegration": true,
    "prettier.statusItemText": "Prettier",
    "coc.preferences.formatOnSaveFiletypes": [
        "*"
    ],
    "coc.preferences.snippets.enable": true,
    "diagnostic.messageTarget": "float",
    "suggest.floatEnable": true,
    "signature.target": "preview",
    "coc.preferences.hoverTarget": "echo",
    "java.home": "/usr/lib/jvm/java-11-openjdk",
    "java.import.gradle.enabled": true,
    "java.import.gradle.wrapper.enabled": true,
    "codeLens.enable": true,
    "java.referencesCodeLens.enabled": true,
    "java.jdt.ls.vmargs": "-javaagent:/usr/local/share/lombok/lombok.jar",
    "explorer.openAction.for.directory": "expandOrCollapse",
    "explorer.width": 30,
    "explorer.icon.enableNerdfont": true,
    "explorer.icon.customIcons": {
        "icons": {
            "folderClosed": {
                "code": " ",
                "color": "#000000"
            },
            "folderOpened": {
                "code": " ",
                "color": "#00afaf"
            }
        },
        "extensions": {},
        "filenames": {},
        "dirnames": {},
        "patternMatches": {},
        "dirPatternMatches": {}
    },
    "explorer.git.icon.status.added": " ",
    "explorer.git.icon.status.deleted": " ",
    "explorer.git.icon.status.renamed": " ",
    "explorer.git.icon.status.unmerged": "≠ ",
    "explorer.git.icon.status.untracked": " ",
    "explorer.git.icon.status.modified": " ",
    "explorer.git.icon.status.ignored": " ",
    "explorer.git.icon.status.mixed": "*",
    "explorer.quitOnOpen": true,
    "explorer.previewAction.onHover": false,
    "explorer.file.showHiddenFiles": true,
    "explorer.keyMappings.global": {
        "<cr>": [
            "expand",
            "open"
        ],
        "=": [
            "wait",
            "cd"
        ],
        "-": [
            "wait",
            "gotoParent"
        ],
        "s": "open:split",
        "v": "open:vsplit",
        "rn": "rename",
        "cp": "copyFile",
        "C": "copyFile",
        "dd": "delete",
        "D": "delete",
        "ad": "addFile",
        "md": "addDirectory"
    }
}
